max_average_similarity_Faith,idea_01,idea_02,idea_03,idea_04,idea_05,idea_06,idea_07,idea_08,idea_09,idea_10
idea_01,1.0,0.1396026852723874,0.22054027428411022,0.25050633341504747,0.13939522230393633,0.08393921754884964,0.0,0.0,0.19862228619834188,0.18310933301807386
idea_02,0.3141060418628716,1.0,0.4579798672989541,0.4579798672989541,0.4579798672989541,0.23846296768055764,0.0,0.0,0.23548013667936252,0.23486208869911804
idea_03,0.38286240451100306,0.25,1.0,0.25,0.25,0.0,0.0,0.0,0.23548013667936252,0.0
idea_04,0.6003813834074824,0.3333333333333333,0.3333333333333333,1.0,0.3333333333333333,0.0,0.0,0.0,0.3139735155724834,0.0
idea_05,0.3079943046554898,0.4320231339896909,0.43047689702400127,0.43047689702400127,1.0,0.0,0.0,0.0,0.1914667707565872,0.0
idea_06,0.15109059158792937,0.19077037414444611,0.0,0.0,0.0,1.0,0.4,0.3952810922935903,0.0,0.13897337660708622
idea_07,0.0,0.0,0.0,0.0,0.0,0.4,1.0,0.38063130793188227,0.0,0.17068705751247576
idea_08,0.0,0.0,0.0,0.0,0.0,0.3294009102446586,0.3171927566099019,1.0,0.0,0.06273543314510552
idea_09,0.6387771316039589,0.3139735155724834,0.3139735155724834,0.3139735155724834,0.3139735155724834,0.0,0.0,0.0,1.0,0.6387771316039589
idea_10,0.23542628530895213,0.45208210649997654,0.0,0.0,0.0,0.09926669757649016,0.21142960908620148,0.05377322841009045,0.14285714285714285,0.8571428571428571
