max_average_similarity_NUnivers,idea_01,idea_02,idea_03,idea_04,idea_05,idea_06,idea_07,idea_08,idea_09,idea_10
idea_01,1.0,0.16006611837243856,0.258427625520501,0.27117722948354966,0.16006611837243856,0.0988940978921027,0.0,0.0,0.21671815332751868,0.19914419308178363
idea_02,0.36014876633798676,1.0,0.49485350381491355,0.49485350381491355,0.49485350381491355,0.24749874182016796,0.0,0.0,0.2479394761282112,0.24621641347889256
idea_03,0.45892923607005753,0.25,1.0,0.25,0.25,0.0,0.0,0.0,0.2479394761282112,0.0
idea_04,0.650154459982556,0.3333333333333333,0.3333333333333333,1.0,0.3333333333333333,0.0,0.0,0.0,0.33058596817094826,0.0
idea_05,0.37455635630178186,0.488450905622573,0.488450905622573,0.488450905622573,1.0,0.0,0.0,0.0,0.21639407287763796,0.0
idea_06,0.17800937620578486,0.19799899345613436,0.0,0.0,0.0,1.0,0.4,0.3999212934855428,0.0,0.15770420252073603
idea_07,0.0,0.0,0.0,0.0,0.0,0.4,1.0,0.39881953427444705,0.0,0.19547559064104542
idea_08,0.0,0.0,0.0,0.0,0.0,0.33326774457128566,0.33234961189537254,1.0,0.0,0.0812199024614858
idea_09,0.6567054326698182,0.33058596817094826,0.33058596817094826,0.33058596817094826,0.33058596817094826,0.0,0.0,0.0,1.0,0.6567054326698182
idea_10,0.25604253396229326,0.48736887765954934,0.0,0.0,0.0,0.11264585894338287,0.23294894717711298,0.06961705925270212,0.14285714285714285,0.8571428571428571
