{
  "id": "5316977e-c7fe-45a0-a870-1671e6b0b665",
  "submitted": "2020-12-20T15:47:29.92778",
  "reviewed": null,
  "hitId": "3Y7LTZE0YTTWXT70KY2PJ41NC59UZP",
  "workerId": "ABW8U1U74P8MI",
  "assignmentId": "3VHHR074H4ODHDCUISN6QH7RM1Z7LL",
  "ratingProjectId": "45-full-dec-a",
  "fulltextFeedback": "It would be nice to see the actual number of our rating when we drag the bar on either side.",
  "clarityRating": 3,
  "passedAttentionCheck": true,
  "reviewStatus": "UNREVIEWED",
  "ratings": [
    {
      "id": 1884,
      "leftIdea": "38aa2640-6efb-49ee-afd7-fb7a786cb406",
      "rightIdea": "7b895e59-8e80-459b-8a66-5aace6df375c",
      "hitId": "3Y7LTZE0YTTWXT70KY2PJ41NC59UZP",
      "workerId": "ABW8U1U74P8MI",
      "assignmentId": "3VHHR074H4ODHDCUISN6QH7RM1Z7LL",
      "similarityRating": 0,
      "reviewStatus": "UNREVIEWED"
    },
    {
      "id": 1885,
      "leftIdea": "0ff8eca7-60a4-402f-a676-abb682b6678e",
      "rightIdea": "48e5a37b-5041-458f-ba20-aa2f634f9028",
      "hitId": "3Y7LTZE0YTTWXT70KY2PJ41NC59UZP",
      "workerId": "ABW8U1U74P8MI",
      "assignmentId": "3VHHR074H4ODHDCUISN6QH7RM1Z7LL",
      "similarityRating": 63,
      "reviewStatus": "UNREVIEWED"
    },
    {
      "id": 1886,
      "leftIdea": "2b49a20d-3777-4cf7-bc2a-d5cee05cadb7",
      "rightIdea": "d454fe41-bec7-48c4-a6a2-9a52b12083b7",
      "hitId": "3Y7LTZE0YTTWXT70KY2PJ41NC59UZP",
      "workerId": "ABW8U1U74P8MI",
      "assignmentId": "3VHHR074H4ODHDCUISN6QH7RM1Z7LL",
      "similarityRating": 226,
      "reviewStatus": "UNREVIEWED"
    },
    {
      "id": 1887,
      "leftIdea": "6afe03be-e2f0-4bd5-95f3-1eba12a0d5ed",
      "rightIdea": "e29368ec-4a13-417a-8f04-b8e5bd13fdff",
      "hitId": "3Y7LTZE0YTTWXT70KY2PJ41NC59UZP",
      "workerId": "ABW8U1U74P8MI",
      "assignmentId": "3VHHR074H4ODHDCUISN6QH7RM1Z7LL",
      "similarityRating": 257,
      "reviewStatus": "UNREVIEWED"
    },
    {
      "id": 1888,
      "leftIdea": "2b49a20d-3777-4cf7-bc2a-d5cee05cadb7",
      "rightIdea": "38aa2640-6efb-49ee-afd7-fb7a786cb406",
      "hitId": "3Y7LTZE0YTTWXT70KY2PJ41NC59UZP",
      "workerId": "ABW8U1U74P8MI",
      "assignmentId": "3VHHR074H4ODHDCUISN6QH7RM1Z7LL",
      "similarityRating": 329,
      "reviewStatus": "UNREVIEWED"
    },
    {
      "id": 1889,
      "leftIdea": "0ff8eca7-60a4-402f-a676-abb682b6678e",
      "rightIdea": "e29368ec-4a13-417a-8f04-b8e5bd13fdff",
      "hitId": "3Y7LTZE0YTTWXT70KY2PJ41NC59UZP",
      "workerId": "ABW8U1U74P8MI",
      "assignmentId": "3VHHR074H4ODHDCUISN6QH7RM1Z7LL",
      "similarityRating": 314,
      "reviewStatus": "UNREVIEWED"
    },
    {
      "id": 1890,
      "leftIdea": "54764cfe-83f4-4a16-b9a0-2294019522dc",
      "rightIdea": "7b895e59-8e80-459b-8a66-5aace6df375c",
      "hitId": "3Y7LTZE0YTTWXT70KY2PJ41NC59UZP",
      "workerId": "ABW8U1U74P8MI",
      "assignmentId": "3VHHR074H4ODHDCUISN6QH7RM1Z7LL",
      "similarityRating": 39,
      "reviewStatus": "UNREVIEWED"
    },
    {
      "id": 1891,
      "leftIdea": "0ff8eca7-60a4-402f-a676-abb682b6678e",
      "rightIdea": "d454fe41-bec7-48c4-a6a2-9a52b12083b7",
      "hitId": "3Y7LTZE0YTTWXT70KY2PJ41NC59UZP",
      "workerId": "ABW8U1U74P8MI",
      "assignmentId": "3VHHR074H4ODHDCUISN6QH7RM1Z7LL",
      "similarityRating": 0,
      "reviewStatus": "UNREVIEWED"
    },
    {
      "id": 1892,
      "leftIdea": "2b49a20d-3777-4cf7-bc2a-d5cee05cadb7",
      "rightIdea": "7b895e59-8e80-459b-8a66-5aace6df375c",
      "hitId": "3Y7LTZE0YTTWXT70KY2PJ41NC59UZP",
      "workerId": "ABW8U1U74P8MI",
      "assignmentId": "3VHHR074H4ODHDCUISN6QH7RM1Z7LL",
      "similarityRating": 262,
      "reviewStatus": "UNREVIEWED"
    },
    {
      "id": 1893,
      "leftIdea": "347be611-bd03-470a-bbb4-d4f6130db982",
      "rightIdea": "48e5a37b-5041-458f-ba20-aa2f634f9028",
      "hitId": "3Y7LTZE0YTTWXT70KY2PJ41NC59UZP",
      "workerId": "ABW8U1U74P8MI",
      "assignmentId": "3VHHR074H4ODHDCUISN6QH7RM1Z7LL",
      "similarityRating": 298,
      "reviewStatus": "UNREVIEWED"
    },
    {
      "id": 1894,
      "leftIdea": "48e5a37b-5041-458f-ba20-aa2f634f9028",
      "rightIdea": "6afe03be-e2f0-4bd5-95f3-1eba12a0d5ed",
      "hitId": "3Y7LTZE0YTTWXT70KY2PJ41NC59UZP",
      "workerId": "ABW8U1U74P8MI",
      "assignmentId": "3VHHR074H4ODHDCUISN6QH7RM1Z7LL",
      "similarityRating": 132,
      "reviewStatus": "UNREVIEWED"
    },
    {
      "id": 1895,
      "leftIdea": "d454fe41-bec7-48c4-a6a2-9a52b12083b7",
      "rightIdea": "e29368ec-4a13-417a-8f04-b8e5bd13fdff",
      "hitId": "3Y7LTZE0YTTWXT70KY2PJ41NC59UZP",
      "workerId": "ABW8U1U74P8MI",
      "assignmentId": "3VHHR074H4ODHDCUISN6QH7RM1Z7LL",
      "similarityRating": 321,
      "reviewStatus": "UNREVIEWED"
    },
    {
      "id": 1896,
      "leftIdea": "2b49a20d-3777-4cf7-bc2a-d5cee05cadb7",
      "rightIdea": "6afe03be-e2f0-4bd5-95f3-1eba12a0d5ed",
      "hitId": "3Y7LTZE0YTTWXT70KY2PJ41NC59UZP",
      "workerId": "ABW8U1U74P8MI",
      "assignmentId": "3VHHR074H4ODHDCUISN6QH7RM1Z7LL",
      "similarityRating": 165,
      "reviewStatus": "UNREVIEWED"
    },
    {
      "id": 1897,
      "leftIdea": "2b49a20d-3777-4cf7-bc2a-d5cee05cadb7",
      "rightIdea": "e29368ec-4a13-417a-8f04-b8e5bd13fdff",
      "hitId": "3Y7LTZE0YTTWXT70KY2PJ41NC59UZP",
      "workerId": "ABW8U1U74P8MI",
      "assignmentId": "3VHHR074H4ODHDCUISN6QH7RM1Z7LL",
      "similarityRating": 186,
      "reviewStatus": "UNREVIEWED"
    },
    {
      "id": 1898,
      "leftIdea": "48e5a37b-5041-458f-ba20-aa2f634f9028",
      "rightIdea": "e29368ec-4a13-417a-8f04-b8e5bd13fdff",
      "hitId": "3Y7LTZE0YTTWXT70KY2PJ41NC59UZP",
      "workerId": "ABW8U1U74P8MI",
      "assignmentId": "3VHHR074H4ODHDCUISN6QH7RM1Z7LL",
      "similarityRating": 279,
      "reviewStatus": "UNREVIEWED"
    },
    {
      "id": 1899,
      "leftIdea": "2b49a20d-3777-4cf7-bc2a-d5cee05cadb7",
      "rightIdea": "48e5a37b-5041-458f-ba20-aa2f634f9028",
      "hitId": "3Y7LTZE0YTTWXT70KY2PJ41NC59UZP",
      "workerId": "ABW8U1U74P8MI",
      "assignmentId": "3VHHR074H4ODHDCUISN6QH7RM1Z7LL",
      "similarityRating": 289,
      "reviewStatus": "UNREVIEWED"
    },
    {
      "id": 1900,
      "leftIdea": "347be611-bd03-470a-bbb4-d4f6130db982",
      "rightIdea": "6afe03be-e2f0-4bd5-95f3-1eba12a0d5ed",
      "hitId": "3Y7LTZE0YTTWXT70KY2PJ41NC59UZP",
      "workerId": "ABW8U1U74P8MI",
      "assignmentId": "3VHHR074H4ODHDCUISN6QH7RM1Z7LL",
      "similarityRating": 250,
      "reviewStatus": "UNREVIEWED"
    },
    {
      "id": 1901,
      "leftIdea": "347be611-bd03-470a-bbb4-d4f6130db982",
      "rightIdea": "54764cfe-83f4-4a16-b9a0-2294019522dc",
      "hitId": "3Y7LTZE0YTTWXT70KY2PJ41NC59UZP",
      "workerId": "ABW8U1U74P8MI",
      "assignmentId": "3VHHR074H4ODHDCUISN6QH7RM1Z7LL",
      "similarityRating": 312,
      "reviewStatus": "UNREVIEWED"
    },
    {
      "id": 1902,
      "leftIdea": "2b49a20d-3777-4cf7-bc2a-d5cee05cadb7",
      "rightIdea": "347be611-bd03-470a-bbb4-d4f6130db982",
      "hitId": "3Y7LTZE0YTTWXT70KY2PJ41NC59UZP",
      "workerId": "ABW8U1U74P8MI",
      "assignmentId": "3VHHR074H4ODHDCUISN6QH7RM1Z7LL",
      "similarityRating": 298,
      "reviewStatus": "UNREVIEWED"
    },
    {
      "id": 1903,
      "leftIdea": "6afe03be-e2f0-4bd5-95f3-1eba12a0d5ed",
      "rightIdea": "7b895e59-8e80-459b-8a66-5aace6df375c",
      "hitId": "3Y7LTZE0YTTWXT70KY2PJ41NC59UZP",
      "workerId": "ABW8U1U74P8MI",
      "assignmentId": "3VHHR074H4ODHDCUISN6QH7RM1Z7LL",
      "similarityRating": 288,
      "reviewStatus": "UNREVIEWED"
    },
    {
      "id": 1904,
      "leftIdea": "0ff8eca7-60a4-402f-a676-abb682b6678e",
      "rightIdea": "2b49a20d-3777-4cf7-bc2a-d5cee05cadb7",
      "hitId": "3Y7LTZE0YTTWXT70KY2PJ41NC59UZP",
      "workerId": "ABW8U1U74P8MI",
      "assignmentId": "3VHHR074H4ODHDCUISN6QH7RM1Z7LL",
      "similarityRating": 278,
      "reviewStatus": "UNREVIEWED"
    },
    {
      "id": 1905,
      "leftIdea": "48e5a37b-5041-458f-ba20-aa2f634f9028",
      "rightIdea": "7b895e59-8e80-459b-8a66-5aace6df375c",
      "hitId": "3Y7LTZE0YTTWXT70KY2PJ41NC59UZP",
      "workerId": "ABW8U1U74P8MI",
      "assignmentId": "3VHHR074H4ODHDCUISN6QH7RM1Z7LL",
      "similarityRating": 174,
      "reviewStatus": "UNREVIEWED"
    },
    {
      "id": 1906,
      "leftIdea": "6afe03be-e2f0-4bd5-95f3-1eba12a0d5ed",
      "rightIdea": "d454fe41-bec7-48c4-a6a2-9a52b12083b7",
      "hitId": "3Y7LTZE0YTTWXT70KY2PJ41NC59UZP",
      "workerId": "ABW8U1U74P8MI",
      "assignmentId": "3VHHR074H4ODHDCUISN6QH7RM1Z7LL",
      "similarityRating": 248,
      "reviewStatus": "UNREVIEWED"
    },
    {
      "id": 1907,
      "leftIdea": "0ff8eca7-60a4-402f-a676-abb682b6678e",
      "rightIdea": "6afe03be-e2f0-4bd5-95f3-1eba12a0d5ed",
      "hitId": "3Y7LTZE0YTTWXT70KY2PJ41NC59UZP",
      "workerId": "ABW8U1U74P8MI",
      "assignmentId": "3VHHR074H4ODHDCUISN6QH7RM1Z7LL",
      "similarityRating": 373,
      "reviewStatus": "UNREVIEWED"
    },
    {
      "id": 1908,
      "leftIdea": "7b895e59-8e80-459b-8a66-5aace6df375c",
      "rightIdea": "d454fe41-bec7-48c4-a6a2-9a52b12083b7",
      "hitId": "3Y7LTZE0YTTWXT70KY2PJ41NC59UZP",
      "workerId": "ABW8U1U74P8MI",
      "assignmentId": "3VHHR074H4ODHDCUISN6QH7RM1Z7LL",
      "similarityRating": 293,
      "reviewStatus": "UNREVIEWED"
    },
    {
      "id": 1909,
      "leftIdea": "54764cfe-83f4-4a16-b9a0-2294019522dc",
      "rightIdea": "e29368ec-4a13-417a-8f04-b8e5bd13fdff",
      "hitId": "3Y7LTZE0YTTWXT70KY2PJ41NC59UZP",
      "workerId": "ABW8U1U74P8MI",
      "assignmentId": "3VHHR074H4ODHDCUISN6QH7RM1Z7LL",
      "similarityRating": 390,
      "reviewStatus": "UNREVIEWED"
    },
    {
      "id": 1910,
      "leftIdea": "38aa2640-6efb-49ee-afd7-fb7a786cb406",
      "rightIdea": "6afe03be-e2f0-4bd5-95f3-1eba12a0d5ed",
      "hitId": "3Y7LTZE0YTTWXT70KY2PJ41NC59UZP",
      "workerId": "ABW8U1U74P8MI",
      "assignmentId": "3VHHR074H4ODHDCUISN6QH7RM1Z7LL",
      "similarityRating": 269,
      "reviewStatus": "UNREVIEWED"
    },
    {
      "id": 1911,
      "leftIdea": "0ff8eca7-60a4-402f-a676-abb682b6678e",
      "rightIdea": "54764cfe-83f4-4a16-b9a0-2294019522dc",
      "hitId": "3Y7LTZE0YTTWXT70KY2PJ41NC59UZP",
      "workerId": "ABW8U1U74P8MI",
      "assignmentId": "3VHHR074H4ODHDCUISN6QH7RM1Z7LL",
      "similarityRating": 377,
      "reviewStatus": "UNREVIEWED"
    },
    {
      "id": 1912,
      "leftIdea": "54764cfe-83f4-4a16-b9a0-2294019522dc",
      "rightIdea": "d454fe41-bec7-48c4-a6a2-9a52b12083b7",
      "hitId": "3Y7LTZE0YTTWXT70KY2PJ41NC59UZP",
      "workerId": "ABW8U1U74P8MI",
      "assignmentId": "3VHHR074H4ODHDCUISN6QH7RM1Z7LL",
      "similarityRating": 275,
      "reviewStatus": "UNREVIEWED"
    },
    {
      "id": 1913,
      "leftIdea": "48e5a37b-5041-458f-ba20-aa2f634f9028",
      "rightIdea": "54764cfe-83f4-4a16-b9a0-2294019522dc",
      "hitId": "3Y7LTZE0YTTWXT70KY2PJ41NC59UZP",
      "workerId": "ABW8U1U74P8MI",
      "assignmentId": "3VHHR074H4ODHDCUISN6QH7RM1Z7LL",
      "similarityRating": 270,
      "reviewStatus": "UNREVIEWED"
    },
    {
      "id": 1914,
      "leftIdea": "347be611-bd03-470a-bbb4-d4f6130db982",
      "rightIdea": "38aa2640-6efb-49ee-afd7-fb7a786cb406",
      "hitId": "3Y7LTZE0YTTWXT70KY2PJ41NC59UZP",
      "workerId": "ABW8U1U74P8MI",
      "assignmentId": "3VHHR074H4ODHDCUISN6QH7RM1Z7LL",
      "similarityRating": 337,
      "reviewStatus": "UNREVIEWED"
    },
    {
      "id": 1915,
      "leftIdea": "48e5a37b-5041-458f-ba20-aa2f634f9028",
      "rightIdea": "d454fe41-bec7-48c4-a6a2-9a52b12083b7",
      "hitId": "3Y7LTZE0YTTWXT70KY2PJ41NC59UZP",
      "workerId": "ABW8U1U74P8MI",
      "assignmentId": "3VHHR074H4ODHDCUISN6QH7RM1Z7LL",
      "similarityRating": 334,
      "reviewStatus": "UNREVIEWED"
    },
    {
      "id": 1916,
      "leftIdea": "347be611-bd03-470a-bbb4-d4f6130db982",
      "rightIdea": "d454fe41-bec7-48c4-a6a2-9a52b12083b7",
      "hitId": "3Y7LTZE0YTTWXT70KY2PJ41NC59UZP",
      "workerId": "ABW8U1U74P8MI",
      "assignmentId": "3VHHR074H4ODHDCUISN6QH7RM1Z7LL",
      "similarityRating": 325,
      "reviewStatus": "UNREVIEWED"
    },
    {
      "id": 1917,
      "leftIdea": "0ff8eca7-60a4-402f-a676-abb682b6678e",
      "rightIdea": "347be611-bd03-470a-bbb4-d4f6130db982",
      "hitId": "3Y7LTZE0YTTWXT70KY2PJ41NC59UZP",
      "workerId": "ABW8U1U74P8MI",
      "assignmentId": "3VHHR074H4ODHDCUISN6QH7RM1Z7LL",
      "similarityRating": 253,
      "reviewStatus": "UNREVIEWED"
    },
    {
      "id": 1918,
      "leftIdea": "54764cfe-83f4-4a16-b9a0-2294019522dc",
      "rightIdea": "6afe03be-e2f0-4bd5-95f3-1eba12a0d5ed",
      "hitId": "3Y7LTZE0YTTWXT70KY2PJ41NC59UZP",
      "workerId": "ABW8U1U74P8MI",
      "assignmentId": "3VHHR074H4ODHDCUISN6QH7RM1Z7LL",
      "similarityRating": 300,
      "reviewStatus": "UNREVIEWED"
    },
    {
      "id": 1919,
      "leftIdea": "7b895e59-8e80-459b-8a66-5aace6df375c",
      "rightIdea": "e29368ec-4a13-417a-8f04-b8e5bd13fdff",
      "hitId": "3Y7LTZE0YTTWXT70KY2PJ41NC59UZP",
      "workerId": "ABW8U1U74P8MI",
      "assignmentId": "3VHHR074H4ODHDCUISN6QH7RM1Z7LL",
      "similarityRating": 342,
      "reviewStatus": "UNREVIEWED"
    },
    {
      "id": 1920,
      "leftIdea": "38aa2640-6efb-49ee-afd7-fb7a786cb406",
      "rightIdea": "e29368ec-4a13-417a-8f04-b8e5bd13fdff",
      "hitId": "3Y7LTZE0YTTWXT70KY2PJ41NC59UZP",
      "workerId": "ABW8U1U74P8MI",
      "assignmentId": "3VHHR074H4ODHDCUISN6QH7RM1Z7LL",
      "similarityRating": 283,
      "reviewStatus": "UNREVIEWED"
    },
    {
      "id": 1921,
      "leftIdea": "0ff8eca7-60a4-402f-a676-abb682b6678e",
      "rightIdea": "7b895e59-8e80-459b-8a66-5aace6df375c",
      "hitId": "3Y7LTZE0YTTWXT70KY2PJ41NC59UZP",
      "workerId": "ABW8U1U74P8MI",
      "assignmentId": "3VHHR074H4ODHDCUISN6QH7RM1Z7LL",
      "similarityRating": 232,
      "reviewStatus": "UNREVIEWED"
    },
    {
      "id": 1922,
      "leftIdea": "347be611-bd03-470a-bbb4-d4f6130db982",
      "rightIdea": "e29368ec-4a13-417a-8f04-b8e5bd13fdff",
      "hitId": "3Y7LTZE0YTTWXT70KY2PJ41NC59UZP",
      "workerId": "ABW8U1U74P8MI",
      "assignmentId": "3VHHR074H4ODHDCUISN6QH7RM1Z7LL",
      "similarityRating": 234,
      "reviewStatus": "UNREVIEWED"
    },
    {
      "id": 1923,
      "leftIdea": "347be611-bd03-470a-bbb4-d4f6130db982",
      "rightIdea": "7b895e59-8e80-459b-8a66-5aace6df375c",
      "hitId": "3Y7LTZE0YTTWXT70KY2PJ41NC59UZP",
      "workerId": "ABW8U1U74P8MI",
      "assignmentId": "3VHHR074H4ODHDCUISN6QH7RM1Z7LL",
      "similarityRating": 247,
      "reviewStatus": "UNREVIEWED"
    },
    {
      "id": 1924,
      "leftIdea": "38aa2640-6efb-49ee-afd7-fb7a786cb406",
      "rightIdea": "d454fe41-bec7-48c4-a6a2-9a52b12083b7",
      "hitId": "3Y7LTZE0YTTWXT70KY2PJ41NC59UZP",
      "workerId": "ABW8U1U74P8MI",
      "assignmentId": "3VHHR074H4ODHDCUISN6QH7RM1Z7LL",
      "similarityRating": 289,
      "reviewStatus": "UNREVIEWED"
    },
    {
      "id": 1925,
      "leftIdea": "38aa2640-6efb-49ee-afd7-fb7a786cb406",
      "rightIdea": "48e5a37b-5041-458f-ba20-aa2f634f9028",
      "hitId": "3Y7LTZE0YTTWXT70KY2PJ41NC59UZP",
      "workerId": "ABW8U1U74P8MI",
      "assignmentId": "3VHHR074H4ODHDCUISN6QH7RM1Z7LL",
      "similarityRating": 170,
      "reviewStatus": "UNREVIEWED"
    },
    {
      "id": 1926,
      "leftIdea": "0ff8eca7-60a4-402f-a676-abb682b6678e",
      "rightIdea": "38aa2640-6efb-49ee-afd7-fb7a786cb406",
      "hitId": "3Y7LTZE0YTTWXT70KY2PJ41NC59UZP",
      "workerId": "ABW8U1U74P8MI",
      "assignmentId": "3VHHR074H4ODHDCUISN6QH7RM1Z7LL",
      "similarityRating": 258,
      "reviewStatus": "UNREVIEWED"
    },
    {
      "id": 1927,
      "leftIdea": "2b49a20d-3777-4cf7-bc2a-d5cee05cadb7",
      "rightIdea": "54764cfe-83f4-4a16-b9a0-2294019522dc",
      "hitId": "3Y7LTZE0YTTWXT70KY2PJ41NC59UZP",
      "workerId": "ABW8U1U74P8MI",
      "assignmentId": "3VHHR074H4ODHDCUISN6QH7RM1Z7LL",
      "similarityRating": 162,
      "reviewStatus": "UNREVIEWED"
    },
    {
      "id": 1928,
      "leftIdea": "38aa2640-6efb-49ee-afd7-fb7a786cb406",
      "rightIdea": "54764cfe-83f4-4a16-b9a0-2294019522dc",
      "hitId": "3Y7LTZE0YTTWXT70KY2PJ41NC59UZP",
      "workerId": "ABW8U1U74P8MI",
      "assignmentId": "3VHHR074H4ODHDCUISN6QH7RM1Z7LL",
      "similarityRating": 163,
      "reviewStatus": "UNREVIEWED"
    },
    {
      "id": 1929,
      "leftIdea": "2b49a20d-3777-4cf7-bc2a-d5cee05cadb7",
      "rightIdea": "d454fe41-bec7-48c4-a6a2-9a52b12083b7",
      "hitId": "3Y7LTZE0YTTWXT70KY2PJ41NC59UZP",
      "workerId": "ABW8U1U74P8MI",
      "assignmentId": "3VHHR074H4ODHDCUISN6QH7RM1Z7LL",
      "similarityRating": 266,
      "reviewStatus": "UNREVIEWED"
    }
  ]
}