,0
session_id,78ea8dbe-2d7a-47f7-81a8-f641cf9a0412
passed_attention_check,True
clarity,3
double_check_pair,"0ff8eca7-60a4-402f-a676-abb682b6678e,2b49a20d-3777-4cf7-bc2a-d5cee05cadb7"
double_check_diff,149
fulltextFeedback,
"6afe03be-e2f0-4bd5-95f3-1eba12a0d5ed,e29368ec-4a13-417a-8f04-b8e5bd13fdff",3.0
"0ff8eca7-60a4-402f-a676-abb682b6678e,347be611-bd03-470a-bbb4-d4f6130db982",26.0
"0ff8eca7-60a4-402f-a676-abb682b6678e,2b49a20d-3777-4cf7-bc2a-d5cee05cadb7",61.75
"347be611-bd03-470a-bbb4-d4f6130db982,48e5a37b-5041-458f-ba20-aa2f634f9028",58.25
"0ff8eca7-60a4-402f-a676-abb682b6678e,d454fe41-bec7-48c4-a6a2-9a52b12083b7",4.5
"38aa2640-6efb-49ee-afd7-fb7a786cb406,d454fe41-bec7-48c4-a6a2-9a52b12083b7",80.0
"38aa2640-6efb-49ee-afd7-fb7a786cb406,e29368ec-4a13-417a-8f04-b8e5bd13fdff",77.0
"0ff8eca7-60a4-402f-a676-abb682b6678e,6afe03be-e2f0-4bd5-95f3-1eba12a0d5ed",95.25
"38aa2640-6efb-49ee-afd7-fb7a786cb406,54764cfe-83f4-4a16-b9a0-2294019522dc",62.25
"347be611-bd03-470a-bbb4-d4f6130db982,6afe03be-e2f0-4bd5-95f3-1eba12a0d5ed",11.0
"2b49a20d-3777-4cf7-bc2a-d5cee05cadb7,d454fe41-bec7-48c4-a6a2-9a52b12083b7",40.0
"38aa2640-6efb-49ee-afd7-fb7a786cb406,6afe03be-e2f0-4bd5-95f3-1eba12a0d5ed",20.5
"0ff8eca7-60a4-402f-a676-abb682b6678e,e29368ec-4a13-417a-8f04-b8e5bd13fdff",2.5
"2b49a20d-3777-4cf7-bc2a-d5cee05cadb7,6afe03be-e2f0-4bd5-95f3-1eba12a0d5ed",5.75
"48e5a37b-5041-458f-ba20-aa2f634f9028,7b895e59-8e80-459b-8a66-5aace6df375c",17.0
"0ff8eca7-60a4-402f-a676-abb682b6678e,48e5a37b-5041-458f-ba20-aa2f634f9028",21.5
"2b49a20d-3777-4cf7-bc2a-d5cee05cadb7,e29368ec-4a13-417a-8f04-b8e5bd13fdff",34.25
"48e5a37b-5041-458f-ba20-aa2f634f9028,54764cfe-83f4-4a16-b9a0-2294019522dc",63.75
"48e5a37b-5041-458f-ba20-aa2f634f9028,d454fe41-bec7-48c4-a6a2-9a52b12083b7",57.25
"54764cfe-83f4-4a16-b9a0-2294019522dc,e29368ec-4a13-417a-8f04-b8e5bd13fdff",63.0
"347be611-bd03-470a-bbb4-d4f6130db982,7b895e59-8e80-459b-8a66-5aace6df375c",20.5
"2b49a20d-3777-4cf7-bc2a-d5cee05cadb7,48e5a37b-5041-458f-ba20-aa2f634f9028",53.0
"48e5a37b-5041-458f-ba20-aa2f634f9028,e29368ec-4a13-417a-8f04-b8e5bd13fdff",80.75
"6afe03be-e2f0-4bd5-95f3-1eba12a0d5ed,d454fe41-bec7-48c4-a6a2-9a52b12083b7",7.0
"7b895e59-8e80-459b-8a66-5aace6df375c,e29368ec-4a13-417a-8f04-b8e5bd13fdff",13.5
"347be611-bd03-470a-bbb4-d4f6130db982,38aa2640-6efb-49ee-afd7-fb7a786cb406",21.0
"347be611-bd03-470a-bbb4-d4f6130db982,e29368ec-4a13-417a-8f04-b8e5bd13fdff",26.0
"38aa2640-6efb-49ee-afd7-fb7a786cb406,48e5a37b-5041-458f-ba20-aa2f634f9028",7.5
"347be611-bd03-470a-bbb4-d4f6130db982,d454fe41-bec7-48c4-a6a2-9a52b12083b7",1.0
"2b49a20d-3777-4cf7-bc2a-d5cee05cadb7,347be611-bd03-470a-bbb4-d4f6130db982",43.5
"2b49a20d-3777-4cf7-bc2a-d5cee05cadb7,54764cfe-83f4-4a16-b9a0-2294019522dc",55.5
"38aa2640-6efb-49ee-afd7-fb7a786cb406,7b895e59-8e80-459b-8a66-5aace6df375c",13.0
"54764cfe-83f4-4a16-b9a0-2294019522dc,d454fe41-bec7-48c4-a6a2-9a52b12083b7",56.5
"d454fe41-bec7-48c4-a6a2-9a52b12083b7,e29368ec-4a13-417a-8f04-b8e5bd13fdff",45.5
"48e5a37b-5041-458f-ba20-aa2f634f9028,6afe03be-e2f0-4bd5-95f3-1eba12a0d5ed",3.25
"2b49a20d-3777-4cf7-bc2a-d5cee05cadb7,38aa2640-6efb-49ee-afd7-fb7a786cb406",87.25
"2b49a20d-3777-4cf7-bc2a-d5cee05cadb7,7b895e59-8e80-459b-8a66-5aace6df375c",31.25
"0ff8eca7-60a4-402f-a676-abb682b6678e,38aa2640-6efb-49ee-afd7-fb7a786cb406",26.25
"6afe03be-e2f0-4bd5-95f3-1eba12a0d5ed,7b895e59-8e80-459b-8a66-5aace6df375c",70.75
"347be611-bd03-470a-bbb4-d4f6130db982,54764cfe-83f4-4a16-b9a0-2294019522dc",13.25
"54764cfe-83f4-4a16-b9a0-2294019522dc,7b895e59-8e80-459b-8a66-5aace6df375c",4.75
"54764cfe-83f4-4a16-b9a0-2294019522dc,6afe03be-e2f0-4bd5-95f3-1eba12a0d5ed",37.75
"0ff8eca7-60a4-402f-a676-abb682b6678e,7b895e59-8e80-459b-8a66-5aace6df375c",77.0
"7b895e59-8e80-459b-8a66-5aace6df375c,d454fe41-bec7-48c4-a6a2-9a52b12083b7",8.25
"0ff8eca7-60a4-402f-a676-abb682b6678e,54764cfe-83f4-4a16-b9a0-2294019522dc",35.0
