max_average_similarity_Faith,idea_01,idea_02,idea_03,idea_04,idea_05,idea_06,idea_07,idea_08,idea_09,idea_10
idea_01,1.0,0.15798168834520263,0.25028218248714257,0.2690443316455269,0.15793322053441575,0.09778493146724396,0.0,0.0,0.21464045206894974,0.1916070182718738
idea_02,0.3554587987767059,1.0,0.4903417237295749,0.4903417237295749,0.4903417237295749,0.24749874182016796,0.0,0.0,0.2471512420850585,0.24621641347889253
idea_03,0.44185144166151413,0.25,1.0,0.25,0.25,0.0,0.0,0.0,0.2471512420850585,0.0
idea_04,0.6454217030238384,0.3333333333333333,0.3333333333333333,1.0,0.3333333333333333,0.0,0.0,0.0,0.3295349894467447,0.0
idea_05,0.34879632610574024,0.48234051973610254,0.48191570949944373,0.48191570949944373,1.0,0.0,0.0,0.0,0.2139099650431746,0.0
idea_06,0.17601287664103912,0.19799899345613436,0.0,0.0,0.0,1.0,0.4,0.3999212934855428,0.0,0.15613519159474978
idea_07,0.0,0.0,0.0,0.0,0.0,0.4,1.0,0.3978402532914032,0.0,0.19362836793087826
idea_08,0.0,0.0,0.0,0.0,0.0,0.33326774457128566,0.33153354440950267,1.0,0.0,0.06444521178770933
idea_09,0.6567054326698182,0.3295349894467447,0.3295349894467447,0.3295349894467447,0.3295349894467447,0.0,0.0,0.0,1.0,0.6567054326698182
idea_10,0.2463518806352663,0.4835772708502558,0.0,0.0,0.0,0.1115251368533927,0.23122137094884332,0.05523875296089371,0.14285714285714285,0.8571428571428571
