max_average_similarity_Lin,idea_01,idea_02,idea_03,idea_04,idea_05,idea_06,idea_07,idea_08,idea_09,idea_10
idea_01,1.0,0.18008878662121786,0.2809098073222034,0.2911559613141288,0.18004485020301766,0.10402296042706473,0.0,0.0,0.21829743126227516,0.2044687528634444
idea_02,0.4051997698977402,1.0,0.49507574217988043,0.49507574217988043,0.49507574217988043,0.24874308316304436,0.0,0.0,0.24856745911817812,0.2480937820584262
idea_03,0.4687170516986542,0.25,1.0,0.25,0.25,0.0,0.0,0.0,0.24856745911817812,0.0
idea_04,0.6556945309073151,0.3333333333333333,0.3333333333333333,1.0,0.3333333333333333,0.0,0.0,0.0,0.3314232788242375,0.0
idea_05,0.41276485013853215,0.5088491933698591,0.5086085891224954,0.5086085891224954,1.0,0.0,0.0,0.0,0.21794709983744742,0.0
idea_06,0.18724132876871652,0.19899446653043548,0.0,0.0,0.0,1.0,0.4,0.3999606389978532,0.0,0.17536620393574331
idea_07,0.0,0.0,0.0,0.0,0.0,0.4,1.0,0.39891426436076854,0.0,0.19676261540670228
idea_08,0.0,0.0,0.0,0.0,0.0,0.333300532498211,0.3324285536339738,1.0,0.0,0.09294951607954892
idea_09,0.66161050119719,0.3314232788242375,0.3314232788242375,0.3314232788242375,0.3314232788242375,0.0,0.0,0.0,1.0,0.66161050119719
idea_10,0.2628883965387142,0.52019426092799,0.0,0.0,0.0,0.12526157423981665,0.2531416195573551,0.0796710137824705,0.14285714285714285,0.8571428571428571
