{
  "id": "20200806-mx-evaluation",
  "workerId": "max2",
  "ratingProjectId": "45-full-A",
  "passedAttentionCheck": true,
  "fulltextFeedback": "mx",
  "clarityRating": 2,
  "assignmentId": "max3",
  "turkSubmitTo": "http://localhost:8002/api/mturk/externalSubmit",
  "hitId": "max1",
  "ratings": [
    {
      "leftIdea": "48e5a37b-5041-458f-ba20-aa2f634f9028",
      "rightIdea": "7b895e59-8e80-459b-8a66-5aace6df375c",
      "similarityRating": 71
    },
    {
      "leftIdea": "54764cfe-83f4-4a16-b9a0-2294019522dc",
      "rightIdea": "6afe03be-e2f0-4bd5-95f3-1eba12a0d5ed",
      "similarityRating": 258
    },
    {
      "leftIdea": "38aa2640-6efb-49ee-afd7-fb7a786cb406",
      "rightIdea": "7b895e59-8e80-459b-8a66-5aace6df375c",
      "similarityRating": 1
    },
    {
      "leftIdea": "0ff8eca7-60a4-402f-a676-abb682b6678e",
      "rightIdea": "6afe03be-e2f0-4bd5-95f3-1eba12a0d5ed",
      "similarityRating": 382
    },
    {
      "leftIdea": "7b895e59-8e80-459b-8a66-5aace6df375c",
      "rightIdea": "e29368ec-4a13-417a-8f04-b8e5bd13fdff",
      "similarityRating": 147
    },
    {
      "leftIdea": "48e5a37b-5041-458f-ba20-aa2f634f9028",
      "rightIdea": "e29368ec-4a13-417a-8f04-b8e5bd13fdff",
      "similarityRating": 375
    },
    {
      "leftIdea": "38aa2640-6efb-49ee-afd7-fb7a786cb406",
      "rightIdea": "54764cfe-83f4-4a16-b9a0-2294019522dc",
      "similarityRating": 390
    },
    {
      "leftIdea": "6afe03be-e2f0-4bd5-95f3-1eba12a0d5ed",
      "rightIdea": "7b895e59-8e80-459b-8a66-5aace6df375c",
      "similarityRating": 304
    },
    {
      "leftIdea": "2b49a20d-3777-4cf7-bc2a-d5cee05cadb7",
      "rightIdea": "38aa2640-6efb-49ee-afd7-fb7a786cb406",
      "similarityRating": 373
    },
    {
      "leftIdea": "0ff8eca7-60a4-402f-a676-abb682b6678e",
      "rightIdea": "54764cfe-83f4-4a16-b9a0-2294019522dc",
      "similarityRating": 258
    },
    {
      "leftIdea": "48e5a37b-5041-458f-ba20-aa2f634f9028",
      "rightIdea": "54764cfe-83f4-4a16-b9a0-2294019522dc",
      "similarityRating": 70
    },
    {
      "leftIdea": "0ff8eca7-60a4-402f-a676-abb682b6678e",
      "rightIdea": "2b49a20d-3777-4cf7-bc2a-d5cee05cadb7",
      "similarityRating": 84
    },
    {
      "leftIdea": "2b49a20d-3777-4cf7-bc2a-d5cee05cadb7",
      "rightIdea": "d454fe41-bec7-48c4-a6a2-9a52b12083b7",
      "similarityRating": 100
    },
    {
      "leftIdea": "6afe03be-e2f0-4bd5-95f3-1eba12a0d5ed",
      "rightIdea": "d454fe41-bec7-48c4-a6a2-9a52b12083b7",
      "similarityRating": 31
    },
    {
      "leftIdea": "d454fe41-bec7-48c4-a6a2-9a52b12083b7",
      "rightIdea": "e29368ec-4a13-417a-8f04-b8e5bd13fdff",
      "similarityRating": 199
    },
    {
      "leftIdea": "38aa2640-6efb-49ee-afd7-fb7a786cb406",
      "rightIdea": "48e5a37b-5041-458f-ba20-aa2f634f9028",
      "similarityRating": 120
    },
    {
      "leftIdea": "2b49a20d-3777-4cf7-bc2a-d5cee05cadb7",
      "rightIdea": "48e5a37b-5041-458f-ba20-aa2f634f9028",
      "similarityRating": 52
    },
    {
      "leftIdea": "347be611-bd03-470a-bbb4-d4f6130db982",
      "rightIdea": "38aa2640-6efb-49ee-afd7-fb7a786cb406",
      "similarityRating": 166
    },
    {
      "leftIdea": "347be611-bd03-470a-bbb4-d4f6130db982",
      "rightIdea": "48e5a37b-5041-458f-ba20-aa2f634f9028",
      "similarityRating": 302
    },
    {
      "leftIdea": "0ff8eca7-60a4-402f-a676-abb682b6678e",
      "rightIdea": "d454fe41-bec7-48c4-a6a2-9a52b12083b7",
      "similarityRating": 79
    },
    {
      "leftIdea": "48e5a37b-5041-458f-ba20-aa2f634f9028",
      "rightIdea": "d454fe41-bec7-48c4-a6a2-9a52b12083b7",
      "similarityRating": 281
    },
    {
      "leftIdea": "2b49a20d-3777-4cf7-bc2a-d5cee05cadb7",
      "rightIdea": "7b895e59-8e80-459b-8a66-5aace6df375c",
      "similarityRating": 292
    },
    {
      "leftIdea": "7b895e59-8e80-459b-8a66-5aace6df375c",
      "rightIdea": "d454fe41-bec7-48c4-a6a2-9a52b12083b7",
      "similarityRating": 0
    },
    {
      "leftIdea": "38aa2640-6efb-49ee-afd7-fb7a786cb406",
      "rightIdea": "e29368ec-4a13-417a-8f04-b8e5bd13fdff",
      "similarityRating": 311
    },
    {
      "leftIdea": "347be611-bd03-470a-bbb4-d4f6130db982",
      "rightIdea": "7b895e59-8e80-459b-8a66-5aace6df375c",
      "similarityRating": 147
    },
    {
      "leftIdea": "0ff8eca7-60a4-402f-a676-abb682b6678e",
      "rightIdea": "48e5a37b-5041-458f-ba20-aa2f634f9028",
      "similarityRating": 46
    },
    {
      "leftIdea": "0ff8eca7-60a4-402f-a676-abb682b6678e",
      "rightIdea": "e29368ec-4a13-417a-8f04-b8e5bd13fdff",
      "similarityRating": 154
    },
    {
      "leftIdea": "0ff8eca7-60a4-402f-a676-abb682b6678e",
      "rightIdea": "347be611-bd03-470a-bbb4-d4f6130db982",
      "similarityRating": 257
    },
    {
      "leftIdea": "54764cfe-83f4-4a16-b9a0-2294019522dc",
      "rightIdea": "7b895e59-8e80-459b-8a66-5aace6df375c",
      "similarityRating": 124
    },
    {
      "leftIdea": "347be611-bd03-470a-bbb4-d4f6130db982",
      "rightIdea": "e29368ec-4a13-417a-8f04-b8e5bd13fdff",
      "similarityRating": 134
    },
    {
      "leftIdea": "0ff8eca7-60a4-402f-a676-abb682b6678e",
      "rightIdea": "7b895e59-8e80-459b-8a66-5aace6df375c",
      "similarityRating": 130
    },
    {
      "leftIdea": "347be611-bd03-470a-bbb4-d4f6130db982",
      "rightIdea": "54764cfe-83f4-4a16-b9a0-2294019522dc",
      "similarityRating": 46
    },
    {
      "leftIdea": "54764cfe-83f4-4a16-b9a0-2294019522dc",
      "rightIdea": "e29368ec-4a13-417a-8f04-b8e5bd13fdff",
      "similarityRating": 288
    },
    {
      "leftIdea": "0ff8eca7-60a4-402f-a676-abb682b6678e",
      "rightIdea": "38aa2640-6efb-49ee-afd7-fb7a786cb406",
      "similarityRating": 100
    },
    {
      "leftIdea": "2b49a20d-3777-4cf7-bc2a-d5cee05cadb7",
      "rightIdea": "e29368ec-4a13-417a-8f04-b8e5bd13fdff",
      "similarityRating": 243
    },
    {
      "leftIdea": "2b49a20d-3777-4cf7-bc2a-d5cee05cadb7",
      "rightIdea": "347be611-bd03-470a-bbb4-d4f6130db982",
      "similarityRating": 150
    },
    {
      "leftIdea": "54764cfe-83f4-4a16-b9a0-2294019522dc",
      "rightIdea": "d454fe41-bec7-48c4-a6a2-9a52b12083b7",
      "similarityRating": 196
    },
    {
      "leftIdea": "347be611-bd03-470a-bbb4-d4f6130db982",
      "rightIdea": "d454fe41-bec7-48c4-a6a2-9a52b12083b7",
      "similarityRating": 293
    },
    {
      "leftIdea": "2b49a20d-3777-4cf7-bc2a-d5cee05cadb7",
      "rightIdea": "54764cfe-83f4-4a16-b9a0-2294019522dc",
      "similarityRating": 200
    },
    {
      "leftIdea": "7b895e59-8e80-459b-8a66-5aace6df375c",
      "rightIdea": "d454fe41-bec7-48c4-a6a2-9a52b12083b7",
      "similarityRating": 47
    },
    {
      "leftIdea": "48e5a37b-5041-458f-ba20-aa2f634f9028",
      "rightIdea": "6afe03be-e2f0-4bd5-95f3-1eba12a0d5ed",
      "similarityRating": 21
    },
    {
      "leftIdea": "6afe03be-e2f0-4bd5-95f3-1eba12a0d5ed",
      "rightIdea": "e29368ec-4a13-417a-8f04-b8e5bd13fdff",
      "similarityRating": 11
    },
    {
      "leftIdea": "2b49a20d-3777-4cf7-bc2a-d5cee05cadb7",
      "rightIdea": "6afe03be-e2f0-4bd5-95f3-1eba12a0d5ed",
      "similarityRating": 33
    },
    {
      "leftIdea": "38aa2640-6efb-49ee-afd7-fb7a786cb406",
      "rightIdea": "d454fe41-bec7-48c4-a6a2-9a52b12083b7",
      "similarityRating": 122
    },
    {
      "leftIdea": "38aa2640-6efb-49ee-afd7-fb7a786cb406",
      "rightIdea": "6afe03be-e2f0-4bd5-95f3-1eba12a0d5ed",
      "similarityRating": 71
    },
    {
      "leftIdea": "347be611-bd03-470a-bbb4-d4f6130db982",
      "rightIdea": "6afe03be-e2f0-4bd5-95f3-1eba12a0d5ed",
      "similarityRating": 200
    }
  ]
}